{
  "data": {
    "items": [
      {
        "id": "488b0260-618b-492a-bbb8-5af2bd551da9",
        "ticker": "FPT",
        "year": 2025,
        "period": 3,
        "reportData": {
          "balanceSheet": {
            "shortTermAssets": {
              "cash": 9853512731370,
              "financialInvestments": 27125585559832,
              "receivables": 13077014449004,
              "inventories": 2050315910017,
              "otherAssets": 1526548213325
            },
            "longTermAssets": {
              "receivables": 576978545154,
              "fixedAssets": 16990519914677,
              "investmentProperty": 0,
              "longTermAssetsInProgress": 1639392184214,
              "financialInvestments": 3982982376038,
              "otherAssets": 5915455046818
            },
            "bankAssets": {
              "depositsAtCentralBank": 17507511000000,
              "depositsAtOtherCreditInstitutions": 108324759000000,
              "investmentSecurities": 235603615000000,
              "loansToCustomers": 917699001000000,
              "otherAssets": 46253247000000,
              "tradingSecurities": 3172173000000
            },
            "shortTermFinancialAssets": {
              "cash": 17507511000000,
              "loans": 17507511000000,
              "other": 17507511000000
            },
            "tradingAndCapitalAssets": {
              "heldToMaturity": 17507511000000,
              "availableForSale": 17507511000000,
              "fvtpl": 17507511000000
            },
            "liabilities": {
              "shortTerm": 36285959995924,
              "longTerm": 3621821024052
            },
            "borrowings": {
              "shortTermBorrowings": 16906417104678,
              "longTermBorrowings": 2681435422290
            },
            "equity": {
              "contributedCapital": 17035071210000,
              "retainedEarnings": 13905342142939,
              "treasuryShares": 0,
              "otherCapital": 11890110557534
            }
          },
          "incomeStatement": {
            "bankOperatingIncome": {
              "netInterestIncome": 12990524000000,
              "otherIncome": 1210129000000,
              "serviceFeeIncome": 1326555000000,
              "tradingIncome": 69486000000
            },
            "insuranceBusiness": {
              "netOperatingRevenue": 9749591088065,
              "operatingExpenses": -9504752925403,
              "operatingProfit": 244838162662
            },
            "securitiesRevenue": {
              "brokerageAndCustodyRevenue": 9749591088065,
              "lendingRevenue": -9504752925403,
              "tradingAndCapitalRevenue": -9504752925403,
              "investmentBankingRevenue": 244838162662
            },

            "grossProfit": {
              "grossProfit": 6518866479010,
              "netRevenue": 17204521225302,
              "costOfGoodsSold": -10685654746292
            },
            "expenses": {
              "costOfGoodsSold": 10685654746292,
              "interestExpenses": 233582914481,
              "sellingExpenses": 1916582832643,
              "financialExpenses": null,
              "managementExpenses": 1647276732839
            },
            "profitBeforeTax": {
              "profitBeforeTax": 3374738598090,
              "operatingProfit": 2955006913528,
              "financialProfit": 260535393631,
              "shareProfitOfAssociatesAndJoint": 130833425587,
              "otherProfit": 28362865344,
              "managementExpenses": null
            },
            "profitAfterTaxAndAFS": {
              "profitAfterTaxAndAfs": 9749591088065,
              "parentCompanyNetProfit": -9504752925403,
              "afsGains": 244838162662
            },
            "parentCompanyNetProfit": {
              "parentCompanyNetProfit": 2434841434732,
              "profitBeforeTax": 3374738598090,
              "corporateIncomeTax": -473192845440,
              "minorityInterests": -466704317918
            }
          },
          "cashFlowStatement": {
            "netCashFlow": -155600697322,
            "operatingActivities": 4344020060779,
            "investingActivities": -1097259863860,
            "financingActivities": -3402360894241
          }
        },
        "filePath": null,
        "fileUrl": null,
        "fileSize": null,
        "status": 2,
        "createdAt": "2026-01-15T09:19:31.754999+00:00",
        "updatedAt": "0001-01-01T00:00:00+00:00"
      }
    ],
    "pageIndex": 1,
    "totalPages": 20,
    "totalCount": 20,
    "hasPreviousPage": false,
    "hasNextPage": true
  },
  "isSuccess": true,
  "message": "Lấy danh sách báo cáo tài chính thành công.",
  "responseTime": "2026-02-01T14:59:55.4055184+00:00"
}
